[
    {
        "No":"1",
        "Account-No": "00001",
        "Name": "Alexander",
        "Balance": "6000",
        "Type": "Saving",
        "Amount":"1000",
        "Transcation-Type":"credit",
        "Current-Balance":"7000"

    },
    {
        "No":"2",
        "Account-No": "00002",
        "Name": "Tim",
        "Balance": "8000",
        "Type": "Car Loan",
        "Amount":"1000",
        "Transcation-Type":"credit",
        "Current-Balance":"7000"        
    },
    {
        "No":"3",
        "Account-No": "00003",
        "Name": "Eric",
        "Balance": "8000",
        "Type": "Saving",
        "Amount":"1000",
        "Transcation-Type":"debit",
        "Current-Balance":"9000" 
        
    },
    {
        "No":"4",
        "Account-No": "00004",
        "Name": "Hermoini",
        "Balance": "10000",
        "Type": "Car Loan",
        "Amount":"1000",
        "Transcation-Type":"credit",
        "Current-Balance":"9000" 
        
    },
    {
        "No":"5",
        "Account-No": "00005",
        "Name": "Harry",
        "Balance": "9000",
        "Type": "Saving",
        "Amount":"1000",
        "Transcation-Type":"credit",
        "Current-Balance":"10000" 
        
    },
    {
        "No":"6",
        "Account-No": "00006",
        "Name": "Potter",
        "Balance": "16000",
        "Type": "Car Loan",
        "Amount":"5000",
        "Transcation-Type":"credit",
        "Current-Balance":"11000" 
        
    },
    {
        "No":"7",
        "Account-No": "00007",
        "Name": "Lucas",
        "Balance": "12000",
        "Type": "Saving",
        "Amount":"1000",
        "Transcation-Type":"credit",
        "Current-Balance":"13000" 
        
    },
    {
        "No":"8",
        "Account-No": "00008",
        "Name": "Alex",
        "Balance": "15000",
        "Type": "Car Loan",
        "Amount":"1000",
        "Transcation-Type":"credit",
        "Current-Balance":"14000" 
        
    },
    {
        "No":"9",
        "Account-No": "00009",
        "Name": "Noah",
        "Balance": "14000",
        "Type": "Saving",
        "Amount":"1000",
        "Transcation-Type":"credit",
        "Current-Balance":"15000" 
 
    },
    {
        "No":"10",
        "Account-No": "00010",
        "Name": "Adam",
        "Balance": "26000",
        "Type": "Car Loan",
        "Amount":"10000",
        "Transcation-Type":"credit",
        "Current-Balance":"16000" 
        
    }
]